<?xml version="1.0" encoding="UTF-8" standalone="no"?>
<svg width="17px" height="17px" viewBox="0 0 17 17" version="1.1" xmlns="http://www.w3.org/2000/svg" xmlns:xlink="http://www.w3.org/1999/xlink">
    <!-- Generator: sketchtool 39.1 (31720) - http://www.bohemiancoding.com/sketch -->
    <title>F1931820-CFAF-459D-938F-4537EEC87F65</title>
    <desc>Created with sketchtool.</desc>
    <defs></defs>
    <g id="Page-1" stroke="none" stroke-width="1" fill="none" fill-rule="evenodd">
        <g id="Home-Copy-2" transform="translate(-149.000000, -615.000000)">
            <g id="Group-3-Copy-3" transform="translate(52.000000, 604.000000)">
                <g id="Group-2" transform="translate(12.000000, 11.000000)">
                    <g id="Group-7" transform="translate(85.000000, 0.000000)">
                        <rect id="Rectangle-10" fill="#FFFFFF" x="0" y="0" width="17" height="17" rx="4"></rect>
                        <g id="1472567478_icon-arrow-right-b" transform="translate(7.000000, 4.000000)" fill="#0D728D">
                            <g id="Layer_1">
                                <path d="M0.643229167,8.9184375 L0.697916667,8.8678125 L4.7734375,5.0428125 C4.91145833,4.9134375 4.99739583,4.719375 4.99739583,4.5028125 C4.99739583,4.28625 4.90885417,4.0921875 4.7734375,3.9628125 L0.705729167,0.140625 L0.638020833,0.0759375 C0.572916667,0.028125 0.494791667,0 0.411458333,0 C0.184895833,0 0,0.208125 0,0.466875 L0,0.466875 L0,8.533125 L0,8.533125 C0,8.791875 0.184895833,9 0.411458333,9 C0.497395833,9 0.578125,8.9690625 0.643229167,8.9184375 L0.643229167,8.9184375 Z" id="Shape"></path>
                            </g>
                        </g>
                    </g>
                </g>
            </g>
        </g>
    </g>
</svg>